BIOL 5404 Assignment 2
…
4a. Use apply() to get the median value for each of the first 4 columns of the iris dataset.

4b. Create an 8 x 8 matrix (give it a name) with the values from 1:64, where the values are filled in row-wise (i.e., the first row should be 1:8, second should be 9:16, third should be 17:24, etc)

4c. Use apply() to get the sample sd of each column in your matrix.

4d. Use apply() to get the sample sd of each row in your matrix. Are you surprised by the values?

Part 5

For this question, we’ll use the diamonds dataset. It is a large dataset with data on the characteristics from ~54,000 diamonds, including each diamond’s weight in carats; it’s “cut”, color, and clarity classifications; it’s price; and it’s dimensions (mm) in 3 axes (and a few others variables).

diamonds

# A tibble: 53,940 × 10
   carat cut       color clarity depth table price     x     y     z
   <dbl> <ord>     <ord> <ord>   <dbl> <dbl> <int> <dbl> <dbl> <dbl>
 1  0.23 Ideal     E     SI2      61.5    55   326  3.95  3.98  2.43
 2  0.21 Premium   E     SI1      59.8    61   326  3.89  3.84  2.31
 3  0.23 Good      E     VS1      56.9    65   327  4.05  4.07  2.31
 4  0.29 Premium   I     VS2      62.4    58   334  4.2   4.23  2.63
 5  0.31 Good      J     SI2      63.3    58   335  4.34  4.35  2.75
 6  0.24 Very Good J     VVS2     62.8    57   336  3.94  3.96  2.48
 7  0.24 Very Good I     VVS1     62.3    57   336  3.95  3.98  2.47
 8  0.26 Very Good H     SI1      61.9    55   337  4.07  4.11  2.53
 9  0.22 Fair      E     VS2      65.1    61   337  3.87  3.78  2.49
10  0.23 Very Good H     VS1      59.4    61   338  4     4.05  2.39
# ℹ 53,930 more rows
…
