BIOL 5404 Assignment 4
…
Clean up any features/labels of the plot so an audience can understand it.

Which pre-modern eras showed the biggest jumps in average city size around the world?

OPTIONAL: Add semi-transparent rectangles in the background of the plot, one rectangle spanning the year range for each era, with the rectangles colour-coded to match the color scheme of the datapoints. The idea is to make it easier for the viewer to see the era transitions. Make the rectangles span the entire vertical/y-range of the plot. Hint: one way to do this is with geom_rect(). It’s helpful to first create a separate little dataframe with columns for era, start_year, and end_year. Then, add a geom_rect() layer that calls that dataframe.

Extra optional challenges

This is for extra (excellent) practice, and is not graded.

The gapminder dataset has info about the continent for different countries around the world:

gapminder

# A tibble: 1,704 × 6
   country     continent  year lifeExp      pop gdpPercap
   <fct>       <fct>     <int>   <dbl>    <int>     <dbl>
 1 Afghanistan Asia       1952    28.8  8425333      779.
 2 Afghanistan Asia       1957    30.3  9240934      821.
 3 Afghanistan Asia       1962    32.0 10267083      853.
 4 Afghanistan Asia       1967    34.0 11537966      836.
 5 Afghanistan Asia       1972    36.1 13079460      740.
 6 Afghanistan Asia       1977    38.4 14880372      786.
 7 Afghanistan Asia       1982    39.9 12881816      978.
 8 Afghanistan Asia       1987    40.8 13867957      852.
 9 Afghanistan Asia       1992    41.7 16317921      649.
10 Afghanistan Asia       1997    41.8 22227415      635.
# ℹ 1,694 more rows

Let’s use the continent info from gapminder, merging it into our other data on cities/pop sizes/eras that we created above. Our goal here will be to determine and plot the number (count) of major ancient cities for each continent-era. This will let us see where in the world the major ancient cities were, through the ages.

First, we will set up a dataframe with just the unique country and continent names from gapminder, as follows:

(cc <- unique(gapminder[, c('country', 'continent')]))

# A tibble: 142 × 2
   country     continent
   <fct>       <fct>    
 1 Afghanistan Asia     
 2 Albania     Europe   
 3 Algeria     Africa   
 4 Angola      Africa   
 5 Argentina   Americas 
 6 Australia   Oceania  
 7 Austria     Europe   
 8 Bahrain     Asia     
 9 Bangladesh  Asia     
10 Belgium     Europe   
# ℹ 132 more rows
…
